[
    {
        "key":"Kara-panondro, karatra, panondro, cin, carte d'identite nationale",
        "Titre": "CIN",
        "description": " Tu es majeur? \nTu as besoin d’un duplicata? \nVoici les étapes pour obtenir ton CIN ou la remplacer. ",
        "Steps": [
            {
                "id": "",
                "etape_type": "Sous-titre",
                "etape_titre": "",
                "etape_desc": "Première demande de CIN"
            },
            {
                "id": "",
                "etape_type": "Sous-sous-titre",
                "etape_titre": "",
                "etape_desc": "Pour les 18ans"
            },
            {
                "id": 1,
                "etape_type": "etape",
                "etape_titre": "Etape 1: Récupérer une Copie ou bulletin de naissance",
                "etape_desc": "(01) Copie ou bulletin de naissance (moins de 03 mois)\nLa copie ou l’acte de naissance est à prendre auprès de la Mairie selon le lieu de naissance. Possibilité de renouvellement au sein du Tribunal si durée de validité expirée.\nEt pour prendre une copie de naissance, on a besoin du livret de famille et/ou d’un certificat de résidence ou juste d’une ancienne copie de naissance."
            },
            {
                "id": 2,
                "etape_type": "etape",
                "etape_titre": "Etape 2: Récupérer un Certificat de résidence",
                "etape_desc": "  (02) Certificats de résidence avec une photo d’identité pour chacun (moins de 01 mois)\nLe certificat de résidence peut être récupéré au sein du Fokontany où l’on habite, en apportant un livret de famille ou un bulletin de naissance.\nLa livraison de ce certificat coûte entre 200 et 1000 Ariary."
            },
            {
                "id": 3,
                "etape_type": "etape",
                "etape_titre": "Etape 3: Prendre des photos d'identité",
                "etape_desc": "(03) Photos d’identité\nLe visage doit être correctement dégagé, clair et net. Pas de colliers, pas de boucles d'oreilles, pas de lunettes, montrant bien le front et les oreilles, cheveux attachés, pas de vêtements montrant les bras."
            },
            {
                "id": "",
                "etape_type": "Sous-titre",
                "etape_titre": "",
                "etape_desc": "Duplicata"
            },
            {
                "id": "",
                "etape_type": "Sous-sous-titre",
                "etape_titre": "",
                "etape_desc": "Pour les +18ans"
            },
            {
                "id": 1,
                "etape_type": "etape",
                "etape_titre": "Etape 1: Récupérer une Copie ou bulletin de naissance",
                "etape_desc": "(01) Copie ou bulletin de naissance (moins de 03 mois)\nLa copie ou l’acte de naissance est à prendre auprès de la Mairie selon le lieu de naissance. Et pour prendre une copie de naissance, on a besoin du livret de famille et/ou d’un certificat de résidence ou juste d’une ancienne copie de naissance."
            },
            {
                "id": 2,
                "etape_type": "etape",
                "etape_titre": "Etape 2: Récupérer un Certificat de résidence",
                "etape_desc": "  (02) Certificats de résidence avec une photo d’identité pour chacun (moins de 01 mois)\nLe certificat de résidence peut être récupéré au sein du Fokontany où l’on habite, en apportant un livret de famille ou un bulletin de naissance. La livraison de ce certificat coûte entre 200 et 1000 Ariary."
            },
            {
                "id": 3,
                "etape_type": "etape",
                "etape_titre": "Etape 3: Prendre des photos d'identité",
                "etape_desc": "(03) Photos d’identité\nLe visage doit être correctement dégagé, clair et net. Pas de colliers, pas de boucles d'oreilles, pas de lunettes, montrant bien le front et les oreilles, cheveux attachés, pas de vêtements montrant les bras.\n\n(01) Fanambarana ankarihary tsy misy fitaka alaina eny amin'ny Biraon'ny Distrikan'Antananarivo\n(02) Photocopies CIN du témoin certifiée par le Fokontany le plus proche\n(01) Fanamarihana avy any amin’ny Fichier central fa mandalo ato amin’ny Distrikan ’Antananarivo\n(01) Fitanana an-tsoratra avy amin’ny polisy (PV)\n"
            },
            {
                "id": "",
                "etape_type": "Sous-sous-titre",
                "etape_titre": "",
                "etape_desc": "Perte"
            },
            {
                "id": 1,
                "etape_type": "etape",
                "etape_titre": "Etape 1: Attestation de déclaration de perte",
                "etape_desc": "(01) Attestation de déclaration de perte (moins de 01 mois)\nÀ faire auprès de la police la plus proche du citoyen avec son signature."
            },
            {
                "id": 2,
                "etape_type": "etape",
                "etape_titre": "Etape 2: Copie de la fiche mère",
                "etape_desc": "La fiche mère est à récupérer auprès de la Mairie où l’on a fait pour la première fois le CIN perdu, et seulement pour ceux qui l’ont fait en dehors de TANA I.\nPour récupérer la fiche mère, il faut passer d’abord par le District TANA I avec ces documents:\n\nTLO porte 13\nCopie de naissance (01)\nPhotos d’identité (02)\nPhotocopie CIN (01)\nCertificat de résidence avec une photo d’identité (moins de 01 mois) (01)\n"
            },
            {
                "id": 3,
                "etape_type": "etape",
                "etape_titre": "Etape 3: Photocopie CIN perdu ou Bulletin de naissance",
                "etape_desc": "(01) Photocopie CIN perdu + (01)  Copie ou bulletin de naissance (moins de 03 mois)\nSeulement pour ceux qui ont fait du duplicata de leur CIN auprès de TANA I."
            },
            {
                "id": 4,
                "etape_type": "etape",
                "etape_titre": "Etape 4: Certificat de résidence avec une photo d’identité",
                "etape_desc": "(01) Certificat de résidence avec une photo d’identité (moins de 01 mois)"
            },
            {
                "id": 5,
                "etape_type": "etape",
                "etape_titre": "Etape 5: Fanambarana ankarihary tsy misy fitaka alaina eny amin'ny Biraon'ny Distrikan'Antananarivo",
                "etape_desc": "(01) Fanambarana ankarihary tsy misy fitaka alaina eny amin'ny Biraon'ny Distrikan'Antananarivo"
            },
            {
                "id": 6,
                "etape_type": "etape",
                "etape_titre": "Etape 6: Prende des photos d’identités",
                "etape_desc": "(03) Photos d’identité\nLe visage doit être correctement dégagé, clair et net. Pas de colliers, pas de boucles d'oreilles, pas de lunettes, montrant bien le front et les oreilles, cheveux attachés, pas de vêtements montrant les bras."
            },
            {
                "id": 7,
                "etape_type": "etape",
                "etape_titre": "Etape 7: Copie ou Bulletin de naissance + Carte électorale",
                "etape_desc": " (01) Copie ou bulletin de naissance (moins de 03 mois) + Carte électorale\n(01) Copie ou bulletin de naissance : Seulement pour ceux qui ont fait le primata de leur CIN en dehors de TANA I."
            },
            {
                "id": "",
                "etape_type": "Sous-sous-titre",
                "etape_titre": "",
                "etape_desc": "Usure"
            },
            {
                "id": 1,
                "etape_type": "etape",
                "etape_titre": "Etape 1: CIN",
                "etape_desc": "CIN"
            },
            {
                "id": 2,
                "etape_type": "etape",
                "etape_titre": "Etape 2:  Copie de la fiche mère",
                "etape_desc": "(01) Copie de la fiche mère\nLa fiche mère est à récupérer auprès de la Mairie où l’on a fait pour la première fois le CIN perdu, et seulement pour ceux qui l’ont fait en dehors de TANA I.\nPour récupérer la fiche mère, il faut passer d’abord par le District."
            },
            {
                "id": 3,
                "etape_type": "etape",
                "etape_titre": "Etape 3: Récupérer une Copie ou bulletin de naissance",
                "etape_desc": "(01) Copie ou acte de naissance\nLa copie ou l’acte de naissance est à prendre auprès de la Mairie selon le lieu de naissance. Et pour prendre une copie de naissance, on a besoin du livret de famille et/ou d’un certificat de résidence ou juste d’une ancienne copie de naissance."
            },
            {
                "id": 4,
                "etape_type": "etape",
                "etape_titre": "Etape 4: Récupérer un Certificat de résidence",
                "etape_desc": "(01) Certificat de résidence avec une photo d’identité (moins de 01 mois)\nLe certificat de résidence peut être récupéré au sein du Fokontany où l’on habite, en apportant un livret de famille ou un bulletin de naissance. La livraison de ce certificat coûte entre 200 et 1000 Ariary."
            },
            {
                "id": 5,
                "etape_type": "etape",
                "etape_titre": "Etape 5: Prende des photos d’identités",
                "etape_desc": "Le visage doit être correctement dégagé, clair et net. Pas de colliers, pas de boucles d'oreilles, pas de lunettes, montrant bien le front et les oreilles, cheveux attachés, pas de vêtements montrant les bras."
            }
        ]
    },
    {
        "key":"Passeport, pasipaoro",
        "Titre": "Passeport",
        "description": " Ireo dingana mila arahina raha angataka na anavao pasipaoro malagasy.  ",
        "Steps": [
            {
                "id": 1,
                "etape_type": "etape",
                "etape_titre": "Etape 1: Dépôt de dossiers complets à la réception",
                "etape_desc": "A partir du moment où vous disposez de tous les documents nécessaires , vous devez les déposer, en présence obligatoire, au SCIE (SERVICE CENTRAL DU CONTRÔLE DE L’IMMIGRATION ET EMIGRATION).\nConcernant les résidents aux chefs-lieux de provinces, le dépôt des documents ainsi que la prise des données biométriques se feront auprès du Service au sein de la Direction Provinciale de la Police Nationale (DPSP/SPRCIE).\nLes documents nécessaires à une demande d’obtention d’un nouveau passeport sont dans la liste ci-après."
            },
            {
                "id": 2,
                "etape_type": "etape",
                "etape_titre": "Etape 2: Paiement de droit, enregistrement",
                "etape_desc": "Revenir le lendemain de votre dépôt de dossiers avec le montant 190.000 Ariary. Vous allez être pris en photo ((sans lunettes, ni colliers, ni boucles d’oreilles) et vos empreintes digitales seront enregistrées. Un numéro définit vous sera fourni. La délivrance de passeport à Antananarivo se fait en 72 heures après la prise de photo. Le délai de traitement des dossiers en provenance des autres régions est de 15 jours"
            },
            {
                "id": 3,
                "etape_type": "etape",
                "etape_titre": "Etape 3: Récupération du passeport",
                "etape_desc": "Présenter votre numéro définit pour récupérer votre passeport."
            }
        ]
    },
    {
        "key":"Fokotany",
        "Titre": "Les certificats que le FOKONTANY délivre",
        "description": " Rehefa mikaraka atonta-taratasim-panjakana dia misy karazana taratasy sy fanamarinana ilaina.  ",
        "Steps": [
            {
                "id": "",
                "etape_type": "etape",
                "etape_titre": "Listes des certificats à procurer au sein du fokontany",
                "etape_desc": "Voici la liste des certificats que vous pouvez vous procurez au sein de votre Fokontany:\n\nRésidence\nCélibat\nBonne conduite\nPrise en charge et de garde\nNon-remariage\nVie collective\nDivorce\nPropriété\nVie individuelle\nExistence du lieu d'exploitation\nOccupation\n"
            }
        ]
    }
]